{
    "help":"Search a DataStore resource.\n\n    The datastore_search action allows you to search data in a resource.\n    DataStore resources that belong to private CKAN resource can only be\n    read by you if you have access to the CKAN resource and send the appropriate\n    authorization.\n\n    :param resource_id: id or alias of the resource to be searched against\n    :type resource_id: string\n    :param filters: matching conditions to select, e.g {\"key1\": \"a\", \"key2\": \"b\"} (optional)\n    :type filters: dictionary\n    :param q: full text query (optional)\n    :type q: string\n    :param plain: treat as plain text query (optional, default: true)\n    :type plain: bool\n    :param language: language of the full text query (optional, default: english)\n    :type language: string\n    :param limit: maximum number of rows to return (optional, default: 100)\n    :type limit: int\n    :param offset: offset this number of rows (optional)\n    :type offset: int\n    :param fields: fields to return (optional, default: all fields in original order)\n    :type fields: list or comma separated string\n    :param sort: comma separated field names with ordering\n                 e.g.: \"fieldname1, fieldname2 desc\"\n    :type sort: string\n\n    Setting the ``plain`` flag to false enables the entire PostgreSQL `full text search query language`_.\n\n    A listing of all available resources can be found at the alias ``_table_metadata``.\n\n    .. _full text search query language: http://www.postgresql.org/docs/9.1/static/datatype-textsearch.html#DATATYPE-TSQUERY\n\n    If you need to download the full resource, read :ref:`dump`.\n\n    **Results:**\n\n    The result of this action is a dictionary with the following keys:\n\n    :rtype: A dictionary with the following keys\n    :param fields: fields/columns and their extra metadata\n    :type fields: list of dictionaries\n    :param offset: query offset value\n    :type offset: int\n    :param limit: query limit value\n    :type limit: int\n    :param filters: query filters\n    :type filters: list of dictionaries\n    :param total: number of total matching records\n    :type total: int\n    :param records: list of matching results\n    :type records: list of dictionaries\n\n    ",
    "success":true,
    "result":{
        "resource_id":"3bbb0b04-8732-4099-b074-c7bd8f8fa080",
        "fields":[
        {
            "type":"int4",
            "id":"_id"
        },
        {
            "type":"int8",
            "id":"changeId"
        },
        {
            "type":"timestamp",
            "id":"changedAt"
        },
        {
            "type":"text",
            "id":"databaseOperation"
        },
        {
            "type":"int8",
            "id":"objectId"
        },
        {
            "type":"int8",
            "id":"versionId"
        },
        {
            "type":"text",
            "id":"createdReason"
        },
        {
            "type":"timestamp",
            "id":"validFrom"
        },
        {
            "type":"timestamp",
            "id":"validTo"
        },
        {
            "type":"date",
            "id":"effectiveDate"
        },
        {
            "type":"text",
            "id":"codelistCode"
        },
        {
            "type":"text",
            "id":"regionCode"
        },
        {
            "type":"text",
            "id":"regionName"
        }
        ],
        "records":[
        {
            "validFrom":"1000-01-01T00:00:00",
            "effectiveDate":"1996-07-24",
            "objectId":"1",
            "validTo":"2004-04-30T23:59:59",
            "databaseOperation":"INSERT",
            "versionId":"1",
            "changeId":null,
            "regionCode":"0",
            "changedAt":null,
            "codelistCode":"CL000023",
            "createdReason":"CREATE",
            "_id":1,
            "regionName":"Nezn\u00e1my"
        },
        {
            "validFrom":"1000-01-01T00:00:00",
            "effectiveDate":"1996-07-24",
            "objectId":"2",
            "validTo":"2015-10-01T10:11:53",
            "databaseOperation":"INSERT",
            "versionId":"2",
            "changeId":null,
            "regionCode":"1",
            "changedAt":null,
            "codelistCode":"CL000023",
            "createdReason":"CREATE",
            "_id":2,
            "regionName":"Bratislavsk\u00fd"
        },
        {
            "validFrom":"1000-01-01T00:00:00",
            "effectiveDate":"1996-07-24",
            "objectId":"3",
            "validTo":"2015-10-01T12:06:21",
            "databaseOperation":"INSERT",
            "versionId":"3",
            "changeId":null,
            "regionCode":"2",
            "changedAt":null,
            "codelistCode":"CL000023",
            "createdReason":"CREATE",
            "_id":3,
            "regionName":"Trnavsk\u00fd"
        },
        {
            "validFrom":"1000-01-01T00:00:00",
            "effectiveDate":"1996-07-24",
            "objectId":"4",
            "validTo":"2015-10-01T12:07:02",
            "databaseOperation":"INSERT",
            "versionId":"4",
            "changeId":null,
            "regionCode":"3",
            "changedAt":null,
            "codelistCode":"CL000023",
            "createdReason":"CREATE",
            "_id":4,
            "regionName":"Trenciansky"
        },
        {
            "validFrom":"1000-01-01T00:00:00",
            "effectiveDate":"1996-07-24",
            "objectId":"5",
            "validTo":"2015-10-01T12:07:43",
            "databaseOperation":"INSERT",
            "versionId":"5",
            "changeId":null,
            "regionCode":"4",
            "changedAt":null,
            "codelistCode":"CL000023",
            "createdReason":"CREATE",
            "_id":5,
            "regionName":"Nitriansky"
        }
        ],
        "_links":{
            "start":"/api/action/datastore_search?limit=5&resource_id=3bbb0b04-8732-4099-b074-c7bd8f8fa080",
            "next":"/api/action/datastore_search?offset=5&limit=5&resource_id=3bbb0b04-8732-4099-b074-c7bd8f8fa080"
        },
        "limit":5,
        "total":20
    }
}
